39               
sym_fod1='X' sym_fod2='He'
  C       1.40080000     0.00000000     0.00000000
  N      -0.08780000     0.00000000     0.00000000
  H       1.72150000    -1.03920000     0.00000000
  H       1.72150000     0.51960000     0.90000000
  H       1.72150000     0.51960000    -0.90000000
  O      -0.64980000     1.08740000     0.00000000
  O      -0.64980000    -1.08740000     0.00000000
  X       1.40080000     0.00000000     0.00000000
  X       0.65650000     0.00000000     0.00000000
  X       1.67339500    -0.88332000     0.00000000
  X       1.67339500     0.44166000     0.76500000
  X       1.67339500     0.44166000    -0.76500000
  X      -0.08780000     0.00000000     0.00000000
  X      -0.36880000     0.54370000     0.00000000
  X      -0.36880000    -0.54370000    -0.48379500
  X      -0.36880000    -0.54370000     0.48379500
  X      -0.64980000     1.08740000     0.00000000
  X      -0.63567493     1.42983199     0.45302937
  X      -0.51336515     1.49304525    -0.37354017
  X      -1.21044001     1.13277666    -0.07948921
  X      -0.64980000    -1.08740000     0.00000000
  X      -1.21628090    -1.12975792     0.00000210
  X      -0.35670583    -1.57401135    -0.00000210
  He      1.40080000     0.00000000     0.00000000
  He     -0.08780000     0.00000000     0.00000000
  He      0.65650000     0.00000000     0.00000000
  He      1.67339500    -0.88332000     0.00000000
  He      1.67339500     0.44166000     0.76500000
  He      1.67339500     0.44166000    -0.76500000
  He     -0.64980000     1.08740000     0.00000000
  He     -0.36880000     0.54370000    -0.48379500
  He     -0.36880000     0.54370000     0.48379500
  He     -0.35670583     1.57401135     0.00000030
  He     -1.21628090     1.12975792    -0.00000030
  He     -0.64980000    -1.08740000     0.00000000
  He     -0.36880000    -0.54370000     0.00000000
  He     -0.67913011    -1.40737310     0.46845679
  He     -1.20058148    -1.13787183    -0.12956523
  He     -0.47976851    -1.51040898    -0.33889156
