39               
sym_fod1='X' sym_fod2='He'
  C       1.40080000     0.00000000     0.00000000
  N      -0.08780000     0.00000000     0.00000000
  H       1.72150000    -1.03920000     0.00000000
  H       1.72150000     0.51960000     0.90000000
  H       1.72150000     0.51960000    -0.90000000
  O      -0.64980000     1.08740000     0.00000000
  O      -0.64980000    -1.08740000     0.00000000
  X       1.40080000     0.00000000     0.00000000
  X       0.65650000     0.00000000     0.00000000
  X       1.67339500    -0.88332000     0.00000000
  X       1.67339500     0.44166000     0.76500000
  X       1.67339500     0.44166000    -0.76500000
  X      -0.08780000     0.00000000     0.00000000
  X      -0.36880000     0.54370000    -0.48379500
  X      -0.36880000     0.54370000     0.48379500
  X      -0.36880000    -0.54370000    -0.48379500
  X      -0.36880000    -0.54370000     0.48379500
  X      -0.64980000     1.08740000     0.00000000
  X      -1.25045424     1.19587908    -0.00000110
  X      -0.39087917     1.64013251     0.00000110
  X      -0.64980000    -1.08740000     0.00000000
  X      -1.25045424    -1.19587908     0.00000367
  X      -0.39087917    -1.64013251    -0.00000367
  He      1.40080000     0.00000000     0.00000000
  He     -0.08780000     0.00000000     0.00000000
  He      0.65650000     0.00000000     0.00000000
  He      1.67339500    -0.88332000     0.00000000
  He      1.67339500     0.44166000     0.76500000
  He      1.67339500     0.44166000    -0.76500000
  He     -0.64980000     1.08740000     0.00000000
  He     -0.36880000     0.54370000     0.48379500
  He     -0.36880000     0.54370000    -0.48379500
  He     -1.25045424     1.19587908    -0.00000110
  He     -0.39087917     1.64013251     0.00000110
  He     -0.64980000    -1.08740000     0.00000000
  He     -0.36880000    -0.54370000     0.48379500
  He     -0.36880000    -0.54370000    -0.48379500
  He     -1.25045424    -1.19587908     0.00000367
  He     -0.39087917    -1.64013251    -0.00000367
