20               
sym_fod1='X' sym_fod2='He'
  O       0.00000000     0.00000000     1.20500000
  C       0.00000000     0.00000000     0.00000000
  H       0.00000000     0.94290000    -0.58760000
  H       0.00000000    -0.94290000    -0.58760000
  X       0.00000000     0.00000000     1.20500000
  X       0.39162500     0.00000000     0.60250000
  X      -0.39162500     0.00000000     0.60250000
  X       0.00000000     0.39162500     1.50625000
  X      -0.00000000    -0.39162500     1.50625000
  X       0.00000000     0.00000000     0.00000000
  X       0.00000000     0.80146500    -0.49946000
  X       0.00000000    -0.80146500    -0.49946000
  He      0.00000000     0.00000000     1.20500000
  He      0.00000000     0.39162500     1.50625000
  He     -0.00000000    -0.39162500     1.50625000
  He      0.00000000     0.00000000     0.00000000
  He     -0.39162500     0.00000000     0.60250000
  He      0.39162500     0.00000000     0.60250000
  He      0.00000000     0.80146500    -0.49946000
  He      0.00000000    -0.80146500    -0.49946000
