20
sym_fod1='X' sym_fod2='He'
O       0.000000000000000      0.000000000000000      1.205000000000000
C       0.000000000000000      0.000000000000000      0.000000000000000
H       0.000000000000000      0.942900000000000     -0.587600000000000
H       0.000000000000000     -0.942900000000000     -0.587600000000000
X      -0.000000000024366     -0.000000000317132      1.216254103112663
X       0.381532467178710      0.000000000558706      0.633111325480923
X      -0.381532466791330      0.000000000880831      0.633111325450334
X       0.000000000025397      0.580136695804370      1.555505174580947
X      -0.000000000011099     -0.580136695799609      1.555505174343230
X      -0.000000000133908      0.000000000285608     -0.023976259169000
X       0.000000000148279      0.740343527315675     -0.445925723555248
X      -0.000000000076369     -0.740343525109688     -0.445925722918253
He      0.000000000008714      0.000000001031048      1.216252091035867
He      0.000000000073921      0.580197743843814      1.555444829783461
He     -0.000000000214316     -0.580197742854510      1.555444831644419
He     -0.000000000012502     -0.000000000021498     -0.023970375571705
He     -0.381594763130224     -0.000000001218265      0.633117556385301
He      0.381594763163517     -0.000000001463701      0.633117556617838
He     -0.000000000073976      0.740333774579764     -0.445915712854333
He      0.000000000057953     -0.740333778181350     -0.445915713350137
